{
  "station": {
    "id_user": 1,
    "id_station_pair": null,
    "pair_position": null,
    "type": "tg_58ghz",
    "lng": 18.45592680342281,
    "lat": 49.89107250618832,
    "antenna_volume": null,
    "channel_width": null,
    "power": null,
    "registered_at": 1578489060,
    "valid_to": 1610111460,
    "protected_to": 1625746260,
    "status": "finished",
    "deleted": 0,
    "created_at": 1578489060,
    "updated_at": 1578507475,
    "name": "DRAKKNET2",
    "published_by": "publication",
    "hardware_identifier": 0,
    "mac_address": null,
    "serial_number": null
  },
  "58ghz": {
    "is_ap": 0,
    "deleted": 0,
    "created_at": 1578489060,
    "updated_at": 1578507475
  }
}