<svg width="16" height="16" viewBox="0 0 16 16" fill="none" xmlns="http://www.w3.org/2000/svg">
<path d="M8.75 2.75C8.75 2.33579 8.41421 2 8 2C7.58579 2 7.25 2.33579 7.25 2.75V11.6608L4.22676 9.17107C3.90701 8.90775 3.43435 8.9535 3.17103 9.27324C2.90771 9.59298 2.95345 10.0656 3.27319 10.329L7.52319 13.829C7.80014 14.057 8.19981 14.057 8.47676 13.829L12.7268 10.329C13.0465 10.0657 13.0922 9.59299 12.8289 9.27324C12.5656 8.9535 12.0929 8.90776 11.7732 9.17107L8.75 11.6608V2.75Z" fill="black"/>
</svg>
