<svg width="20" height="20" viewBox="0 0 20 20" fill="none" xmlns="http://www.w3.org/2000/svg">
<path d="M14.2803 7.78033C14.5732 7.48744 14.5732 7.01256 14.2803 6.71967C13.9874 6.42678 13.5126 6.42678 13.2197 6.71967L8.25 11.6893L6.78033 10.2197C6.48744 9.92678 6.01256 9.92678 5.71967 10.2197C5.42678 10.5126 5.42678 10.9874 5.71967 11.2803L7.71967 13.2803C8.01256 13.5732 8.48744 13.5732 8.78033 13.2803L14.2803 7.78033Z" fill="#2F855A"/>
<path fill-rule="evenodd" clip-rule="evenodd" d="M19 10C19 14.9706 14.9706 19 10 19C5.02944 19 1 14.9706 1 10C1 5.02944 5.02944 1 10 1C14.9706 1 19 5.02944 19 10ZM17.5 10C17.5 14.1421 14.1421 17.5 10 17.5C5.85786 17.5 2.5 14.1421 2.5 10C2.5 5.85786 5.85786 2.5 10 2.5C14.1421 2.5 17.5 5.85786 17.5 10Z" fill="#2F855A"/>
</svg>
