<svg width="16" height="16" viewBox="0 0 16 16" fill="none" xmlns="http://www.w3.org/2000/svg">
<path fill-rule="evenodd" clip-rule="evenodd" d="M5.11833 6.52814C5.29235 6.20298 5.63121 6 6 6H10C10.3688 6 10.7077 6.20298 10.8817 6.52814C11.0557 6.8533 11.0366 7.24784 10.8321 7.5547L8.83205 10.5547C8.64659 10.8329 8.33435 11 8 11C7.66565 11 7.35342 10.8329 7.16795 10.5547L5.16795 7.5547C4.96338 7.24784 4.94431 6.8533 5.11833 6.52814Z" fill="black"/>
</svg>
