<svg width="24" height="24" viewBox="0 0 24 24" fill="none" xmlns="http://www.w3.org/2000/svg">
<path fill-rule="evenodd" clip-rule="evenodd" d="M15 4C12.79 4 11 5.79 11 8C11 10.21 12.79 12 15 12C17.21 12 19 10.21 19 8C19 5.79 17.21 4 15 4ZM15 5.9C16.16 5.9 17.1 6.84 17.1 8C17.1 9.16 16.16 10.1 15 10.1C13.84 10.1 12.9 9.16 12.9 8C12.9 6.84 13.84 5.9 15 5.9Z" fill="black"/>
<path fill-rule="evenodd" clip-rule="evenodd" d="M15 13C12.33 13 7 14.34 7 17V19C7 19.55 7.45 20 8 20H22C22.55 20 23 19.55 23 19V17C23 14.34 17.67 13 15 13ZM15 14.9C17.97 14.9 21.1 16.36 21.1 17V18.1H8.9V17C8.9 16.36 12.03 14.9 15 14.9Z" fill="black"/>
<path d="M1 11C1 10.4477 1.44772 10 2 10H4V8C4 7.44772 4.44772 7 5 7C5.55228 7 6 7.44772 6 8V10H8C8.55229 10 9 10.4477 9 11C9 11.5523 8.55229 12 8 12H6V14C6 14.5523 5.55228 15 5 15C4.44772 15 4 14.5523 4 14V12H2C1.44772 12 1 11.5523 1 11Z" fill="black"/>
</svg>
